Building Recommendation Systems for BBC iPlayer users
…
length(unique(rating_data$movieId)) #Identifying movies that have not been yet rated by any user. They are safe to ignore for now, since they shouldn't affect our recommendations

## [1] 10323

length(unique(movie_data$movieId))

## [1] 10327

setdiff(unique(movie_data$movieId), unique(rating_data$movieId)) 

## [1]   7243   8785  54290 128991

rating_data

## # A tibble: 105,335 x 3
##    userId movieId rating
##     <int>   <int>  <dbl>
##  1      1      16    4  
##  2      1      24    1.5
##  3      1      32    4  
##  4      1      47    4  
##  5      1      50    4  
##  6      1     110    4  
##  7      1     150    3  
##  8      1     161    4  
##  9      1     165    3  
## 10      1     204    0.5
## # … with 105,325 more rows
…
(rating_data)

## # A tibble: 105,335 x 3
##    userId movieId rating
##     <int>   <int>  <dbl>
##  1      1      16    4  
##  2      1      24    1.5
##  3      1      32    4  
##  4      1      47    4  
##  5      1      50    4  
##  6      1     110    4  
##  7      1     150    3  
##  8      1     161    4  
##  9      1     165    3  
## 10      1     204    0.5
## # … with 105,325 more rows
…
